﻿-d:DEBUG
-d:TRACE
-d:NETCOREAPP1_0
-nowarn:CS1701
-nowarn:CS1702
-nowarn:CS1705
-debug:full
-nostdlib
-nologo
"C:\Users\user1\Documents\Visual Studio 2015\Projects\skiShop\src\skiShop\bin\src\skiShop\obj\Debug\netcoreapp1.0\dotnet-compile.assemblyinfo.cs"
-out:"C:\Users\user1\Documents\Visual Studio 2015\Projects\skiShop\src\skiShop\bin\src\skiShop\bin\Debug\netcoreapp1.0\skiShop.dll"
-r:"C:\Users\user1\.nuget\packages\MailKit\1.16.2\lib\netstandard1.3\MailKit.dll"
-r:"C:\Users\user1\.nuget\packages\Microsoft.ApplicationInsights\2.1.0\lib\dotnet5.4\Microsoft.ApplicationInsights.dll"
-r:"C:\Users\user1\.nuget\packages\Microsoft.ApplicationInsights.AspNetCore\1.0.0\lib\netstandard1.6\Microsoft.ApplicationInsights.AspNetCore.dll"
-r:"C:\Users\user1\.nuget\packages\Microsoft.AspNetCore.Antiforgery\1.0.1\lib\netstandard1.3\Microsoft.AspNetCore.Antiforgery.dll"
-r:"C:\Users\user1\.nuget\packages\Microsoft.AspNetCore.Authentication\1.0.0\lib\netstandard1.3\Microsoft.AspNetCore.Authentication.dll"
-r:"C:\Users\user1\.nuget\packages\Microsoft.AspNetCore.Authentication.Cookies\1.0.0\lib\netstandard1.3\Microsoft.AspNetCore.Authentication.Cookies.dll"
-r:"C:\Users\user1\.nuget\packages\Microsoft.AspNetCore.Authorization\1.0.0\lib\netstandard1.3\Microsoft.AspNetCore.Authorization.dll"
-r:"C:\Users\user1\.nuget\packages\Microsoft.AspNetCore.AzureAppServicesIntegration\1.0.2\lib\netstandard1.3\Microsoft.AspNetCore.AzureAppServicesIntegration.dll"
-r:"C:\Users\user1\.nuget\packages\Microsoft.AspNetCore.Cors\1.0.0\lib\netstandard1.3\Microsoft.AspNetCore.Cors.dll"
-r:"C:\Users\user1\.nuget\packages\Microsoft.AspNetCore.Cryptography.Internal\1.1.1\lib\netstandard1.3\Microsoft.AspNetCore.Cryptography.Internal.dll"
-r:"C:\Users\user1\.nuget\packages\Microsoft.AspNetCore.Cryptography.KeyDerivation\1.0.0\lib\netstandard1.3\Microsoft.AspNetCore.Cryptography.KeyDerivation.dll"
-r:"C:\Users\user1\.nuget\packages\Microsoft.AspNetCore.DataProtection\1.1.1\lib\netstandard1.3\Microsoft.AspNetCore.DataProtection.dll"
-r:"C:\Users\user1\.nuget\packages\Microsoft.AspNetCore.DataProtection.Abstractions\1.1.1\lib\netstandard1.3\Microsoft.AspNetCore.DataProtection.Abstractions.dll"
-r:"C:\Users\user1\.nuget\packages\Microsoft.AspNetCore.Diagnostics\1.0.0\lib\netstandard1.3\Microsoft.AspNetCore.Diagnostics.dll"
-r:"C:\Users\user1\.nuget\packages\Microsoft.AspNetCore.Diagnostics.Abstractions\1.0.0\lib\netstandard1.0\Microsoft.AspNetCore.Diagnostics.Abstractions.dll"
-r:"C:\Users\user1\.nuget\packages\Microsoft.AspNetCore.Diagnostics.EntityFrameworkCore\1.0.0\lib\netstandard1.3\Microsoft.AspNetCore.Diagnostics.EntityFrameworkCore.dll"
-r:"C:\Users\user1\.nuget\packages\Microsoft.AspNetCore.Hosting\1.0.0\lib\netstandard1.3\Microsoft.AspNetCore.Hosting.dll"
-r:"C:\Users\user1\.nuget\packages\Microsoft.AspNetCore.Hosting.Abstractions\1.1.2\lib\netstandard1.3\Microsoft.AspNetCore.Hosting.Abstractions.dll"
-r:"C:\Users\user1\.nuget\packages\Microsoft.AspNetCore.Hosting.Server.Abstractions\1.1.2\lib\netstandard1.3\Microsoft.AspNetCore.Hosting.Server.Abstractions.dll"
-r:"C:\Users\user1\.nuget\packages\Microsoft.AspNetCore.Html.Abstractions\1.0.0\lib\netstandard1.0\Microsoft.AspNetCore.Html.Abstractions.dll"
-r:"C:\Users\user1\.nuget\packages\Microsoft.AspNetCore.Http\1.0.0\lib\netstandard1.3\Microsoft.AspNetCore.Http.dll"
-r:"C:\Users\user1\.nuget\packages\Microsoft.AspNetCore.Http.Abstractions\1.1.2\lib\netstandard1.3\Microsoft.AspNetCore.Http.Abstractions.dll"
-r:"C:\Users\user1\.nuget\packages\Microsoft.AspNetCore.Http.Extensions\1.0.0\lib\netstandard1.3\Microsoft.AspNetCore.Http.Extensions.dll"
-r:"C:\Users\user1\.nuget\packages\Microsoft.AspNetCore.Http.Features\1.1.2\lib\netstandard1.3\Microsoft.AspNetCore.Http.Features.dll"
-r:"C:\Users\user1\.nuget\packages\Microsoft.AspNetCore.HttpOverrides\1.0.0\lib\netstandard1.3\Microsoft.AspNetCore.HttpOverrides.dll"
-r:"C:\Users\user1\.nuget\packages\Microsoft.AspNetCore.Identity\1.0.0\lib\netstandard1.3\Microsoft.AspNetCore.Identity.dll"
-r:"C:\Users\user1\.nuget\packages\Microsoft.AspNetCore.Identity.EntityFrameworkCore\1.0.0\lib\netstandard1.3\Microsoft.AspNetCore.Identity.EntityFrameworkCore.dll"
-r:"C:\Users\user1\.nuget\packages\Microsoft.AspNetCore.JsonPatch\1.0.0\lib\netstandard1.1\Microsoft.AspNetCore.JsonPatch.dll"
-r:"C:\Users\user1\.nuget\packages\Microsoft.AspNetCore.Localization\1.0.0\lib\netstandard1.3\Microsoft.AspNetCore.Localization.dll"
-r:"C:\Users\user1\.nuget\packages\Microsoft.AspNetCore.Mvc\1.0.1\lib\netstandard1.6\Microsoft.AspNetCore.Mvc.dll"
-r:"C:\Users\user1\.nuget\packages\Microsoft.AspNetCore.Mvc.Abstractions\1.0.1\lib\netstandard1.3\Microsoft.AspNetCore.Mvc.Abstractions.dll"
-r:"C:\Users\user1\.nuget\packages\Microsoft.AspNetCore.Mvc.ApiExplorer\1.0.1\lib\netstandard1.6\Microsoft.AspNetCore.Mvc.ApiExplorer.dll"
-r:"C:\Users\user1\.nuget\packages\Microsoft.AspNetCore.Mvc.Core\1.0.1\lib\netstandard1.6\Microsoft.AspNetCore.Mvc.Core.dll"
-r:"C:\Users\user1\.nuget\packages\Microsoft.AspNetCore.Mvc.Cors\1.0.1\lib\netstandard1.6\Microsoft.AspNetCore.Mvc.Cors.dll"
-r:"C:\Users\user1\.nuget\packages\Microsoft.AspNetCore.Mvc.DataAnnotations\1.0.1\lib\netstandard1.6\Microsoft.AspNetCore.Mvc.DataAnnotations.dll"
-r:"C:\Users\user1\.nuget\packages\Microsoft.AspNetCore.Mvc.Formatters.Json\1.0.1\lib\netstandard1.6\Microsoft.AspNetCore.Mvc.Formatters.Json.dll"
-r:"C:\Users\user1\.nuget\packages\Microsoft.AspNetCore.Mvc.Localization\1.0.1\lib\netstandard1.6\Microsoft.AspNetCore.Mvc.Localization.dll"
-r:"C:\Users\user1\.nuget\packages\Microsoft.AspNetCore.Mvc.Razor\1.0.1\lib\netstandard1.6\Microsoft.AspNetCore.Mvc.Razor.dll"
-r:"C:\Users\user1\.nuget\packages\Microsoft.AspNetCore.Mvc.Razor.Host\1.0.1\lib\netstandard1.6\Microsoft.AspNetCore.Mvc.Razor.Host.dll"
-r:"C:\Users\user1\.nuget\packages\Microsoft.AspNetCore.Mvc.TagHelpers\1.0.1\lib\netstandard1.6\Microsoft.AspNetCore.Mvc.TagHelpers.dll"
-r:"C:\Users\user1\.nuget\packages\Microsoft.AspNetCore.Mvc.ViewFeatures\1.0.1\lib\netstandard1.6\Microsoft.AspNetCore.Mvc.ViewFeatures.dll"
-r:"C:\Users\user1\.nuget\packages\Microsoft.AspNetCore.Razor\1.0.0\lib\netstandard1.3\Microsoft.AspNetCore.Razor.dll"
-r:"C:\Users\user1\.nuget\packages\Microsoft.AspNetCore.Razor.Runtime\1.0.0\lib\netstandard1.5\Microsoft.AspNetCore.Razor.Runtime.dll"
-r:"C:\Users\user1\.nuget\packages\Microsoft.AspNetCore.Razor.Tools\1.0.0-preview2-final\lib\netcoreapp1.0\dotnet-razor-tooling.dll"
-r:"C:\Users\user1\.nuget\packages\Microsoft.AspNetCore.Routing\1.0.1\lib\netstandard1.3\Microsoft.AspNetCore.Routing.dll"
-r:"C:\Users\user1\.nuget\packages\Microsoft.AspNetCore.Routing.Abstractions\1.0.1\lib\netstandard1.3\Microsoft.AspNetCore.Routing.Abstractions.dll"
-r:"C:\Users\user1\.nuget\packages\Microsoft.AspNetCore.Server.IISIntegration\1.0.0\lib\netstandard1.3\Microsoft.AspNetCore.Server.IISIntegration.dll"
-r:"C:\Users\user1\.nuget\packages\Microsoft.AspNetCore.Server.Kestrel\1.0.1\lib\netstandard1.3\Microsoft.AspNetCore.Server.Kestrel.dll"
-r:"C:\Users\user1\.nuget\packages\Microsoft.AspNetCore.Session\1.1.1\lib\netstandard1.3\Microsoft.AspNetCore.Session.dll"
-r:"C:\Users\user1\.nuget\packages\Microsoft.AspNetCore.StaticFiles\1.0.0\lib\netstandard1.3\Microsoft.AspNetCore.StaticFiles.dll"
-r:"C:\Users\user1\.nuget\packages\Microsoft.AspNetCore.WebUtilities\1.0.0\lib\netstandard1.3\Microsoft.AspNetCore.WebUtilities.dll"
-r:"C:\Users\user1\.nuget\packages\Microsoft.CodeAnalysis.Common\1.3.0\lib\netstandard1.3\Microsoft.CodeAnalysis.dll"
-r:"C:\Users\user1\.nuget\packages\Microsoft.CodeAnalysis.CSharp\1.3.0\lib\netstandard1.3\Microsoft.CodeAnalysis.CSharp.dll"
-r:"C:\Users\user1\.nuget\packages\Microsoft.CodeAnalysis.CSharp.Workspaces\1.3.0\lib\netstandard1.3\Microsoft.CodeAnalysis.CSharp.Workspaces.dll"
-r:"C:\Users\user1\.nuget\packages\Microsoft.CodeAnalysis.Workspaces.Common\1.3.0\lib\netstandard1.3\Microsoft.CodeAnalysis.Workspaces.dll"
-r:"C:\Users\user1\.nuget\packages\Microsoft.Composition\1.0.27\lib\portable-net45+win8+wp8+wpa81\System.Composition.AttributedModel.dll"
-r:"C:\Users\user1\.nuget\packages\Microsoft.Composition\1.0.27\lib\portable-net45+win8+wp8+wpa81\System.Composition.Convention.dll"
-r:"C:\Users\user1\.nuget\packages\Microsoft.Composition\1.0.27\lib\portable-net45+win8+wp8+wpa81\System.Composition.Hosting.dll"
-r:"C:\Users\user1\.nuget\packages\Microsoft.Composition\1.0.27\lib\portable-net45+win8+wp8+wpa81\System.Composition.Runtime.dll"
-r:"C:\Users\user1\.nuget\packages\Microsoft.Composition\1.0.27\lib\portable-net45+win8+wp8+wpa81\System.Composition.TypedParts.dll"
-r:"C:\Users\user1\.nuget\packages\Microsoft.CSharp\4.0.1\ref\netstandard1.0\Microsoft.CSharp.dll"
-r:"C:\Users\user1\.nuget\packages\Microsoft.Data.Edm\5.6.4\lib\portable-net45+wp8+win8+wpa\Microsoft.Data.Edm.dll"
-r:"C:\Users\user1\.nuget\packages\Microsoft.Data.OData\5.6.4\lib\portable-net45+wp8+win8+wpa\Microsoft.Data.OData.dll"
-r:"C:\Users\user1\.nuget\packages\Microsoft.Data.Services.Client\5.6.4\lib\portable-net45+wp8+win8+wpa\Microsoft.Data.Services.Client.dll"
-r:"C:\Users\user1\.nuget\packages\Microsoft.DotNet.Cli.Utils\1.0.0-preview2-003121\lib\netstandard1.6\Microsoft.DotNet.Cli.Utils.dll"
-r:"C:\Users\user1\.nuget\packages\Microsoft.DotNet.InternalAbstractions\1.0.0\lib\netstandard1.3\Microsoft.DotNet.InternalAbstractions.dll"
-r:"C:\Users\user1\.nuget\packages\Microsoft.DotNet.ProjectModel\1.0.0-rc3-003121\lib\netstandard1.6\Microsoft.DotNet.ProjectModel.dll"
-r:"C:\Users\user1\.nuget\packages\Microsoft.DotNet.ProjectModel.Loader\1.0.0-preview2-003121\lib\netstandard1.6\Microsoft.DotNet.ProjectModel.Loader.dll"
-r:"C:\Users\user1\.nuget\packages\Microsoft.EntityFrameworkCore\1.0.1\lib\netstandard1.3\Microsoft.EntityFrameworkCore.dll"
-r:"C:\Users\user1\.nuget\packages\Microsoft.EntityFrameworkCore.Design\1.0.0-preview2-final\lib\netcoreapp1.0\Microsoft.EntityFrameworkCore.Design.dll"
-r:"C:\Users\user1\.nuget\packages\Microsoft.EntityFrameworkCore.Design.Core\1.0.0-preview2-final\lib\netstandard1.3\Microsoft.EntityFrameworkCore.Design.Core.dll"
-r:"C:\Users\user1\.nuget\packages\Microsoft.EntityFrameworkCore.Relational\1.0.1\lib\netstandard1.3\Microsoft.EntityFrameworkCore.Relational.dll"
-r:"C:\Users\user1\.nuget\packages\Microsoft.EntityFrameworkCore.Relational.Design\1.0.1\lib\netstandard1.3\Microsoft.EntityFrameworkCore.Relational.Design.dll"
-r:"C:\Users\user1\.nuget\packages\Microsoft.EntityFrameworkCore.SqlServer\1.0.1\lib\netstandard1.3\Microsoft.EntityFrameworkCore.SqlServer.dll"
-r:"C:\Users\user1\.nuget\packages\Microsoft.EntityFrameworkCore.SqlServer.Design\1.0.1\lib\netstandard1.3\Microsoft.EntityFrameworkCore.SqlServer.Design.dll"
-r:"C:\Users\user1\.nuget\packages\Microsoft.EntityFrameworkCore.Tools\1.0.0-preview2-final\lib\netcoreapp1.0\dotnet-ef.dll"
-r:"C:\Users\user1\.nuget\packages\Microsoft.Extensions.Caching.Abstractions\1.1.1\lib\netstandard1.0\Microsoft.Extensions.Caching.Abstractions.dll"
-r:"C:\Users\user1\.nuget\packages\Microsoft.Extensions.Caching.Memory\1.1.1\lib\netstandard1.3\Microsoft.Extensions.Caching.Memory.dll"
-r:"C:\Users\user1\.nuget\packages\Microsoft.Extensions.CommandLineUtils\1.0.0\lib\netstandard1.3\Microsoft.Extensions.CommandLineUtils.dll"
-r:"C:\Users\user1\.nuget\packages\Microsoft.Extensions.Configuration\1.0.0\lib\netstandard1.1\Microsoft.Extensions.Configuration.dll"
-r:"C:\Users\user1\.nuget\packages\Microsoft.Extensions.Configuration.Abstractions\1.1.2\lib\netstandard1.0\Microsoft.Extensions.Configuration.Abstractions.dll"
-r:"C:\Users\user1\.nuget\packages\Microsoft.Extensions.Configuration.Binder\1.0.0\lib\netstandard1.1\Microsoft.Extensions.Configuration.Binder.dll"
-r:"C:\Users\user1\.nuget\packages\Microsoft.Extensions.Configuration.EnvironmentVariables\1.0.0\lib\netstandard1.3\Microsoft.Extensions.Configuration.EnvironmentVariables.dll"
-r:"C:\Users\user1\.nuget\packages\Microsoft.Extensions.Configuration.FileExtensions\1.0.0\lib\netstandard1.3\Microsoft.Extensions.Configuration.FileExtensions.dll"
-r:"C:\Users\user1\.nuget\packages\Microsoft.Extensions.Configuration.Json\1.0.0\lib\netstandard1.3\Microsoft.Extensions.Configuration.Json.dll"
-r:"C:\Users\user1\.nuget\packages\Microsoft.Extensions.Configuration.UserSecrets\1.0.0\lib\netstandard1.3\Microsoft.Extensions.Configuration.UserSecrets.dll"
-r:"C:\Users\user1\.nuget\packages\Microsoft.Extensions.DependencyInjection\1.0.0\lib\netstandard1.1\Microsoft.Extensions.DependencyInjection.dll"
-r:"C:\Users\user1\.nuget\packages\Microsoft.Extensions.DependencyInjection.Abstractions\1.1.1\lib\netstandard1.0\Microsoft.Extensions.DependencyInjection.Abstractions.dll"
-r:"C:\Users\user1\.nuget\packages\Microsoft.Extensions.DependencyModel\1.0.0\lib\netstandard1.6\Microsoft.Extensions.DependencyModel.dll"
-r:"C:\Users\user1\.nuget\packages\Microsoft.Extensions.DiagnosticAdapter\1.0.0\lib\netstandard1.1\Microsoft.Extensions.DiagnosticAdapter.dll"
-r:"C:\Users\user1\.nuget\packages\Microsoft.Extensions.FileProviders.Abstractions\1.1.1\lib\netstandard1.0\Microsoft.Extensions.FileProviders.Abstractions.dll"
-r:"C:\Users\user1\.nuget\packages\Microsoft.Extensions.FileProviders.Composite\1.0.0\lib\netstandard1.0\Microsoft.Extensions.FileProviders.Composite.dll"
-r:"C:\Users\user1\.nuget\packages\Microsoft.Extensions.FileProviders.Physical\1.0.0\lib\netstandard1.3\Microsoft.Extensions.FileProviders.Physical.dll"
-r:"C:\Users\user1\.nuget\packages\Microsoft.Extensions.FileSystemGlobbing\1.0.0\lib\netstandard1.3\Microsoft.Extensions.FileSystemGlobbing.dll"
-r:"C:\Users\user1\.nuget\packages\Microsoft.Extensions.Globalization.CultureInfoCache\1.0.0\lib\netstandard1.1\Microsoft.Extensions.Globalization.CultureInfoCache.dll"
-r:"C:\Users\user1\.nuget\packages\Microsoft.Extensions.Localization\1.0.0\lib\netstandard1.3\Microsoft.Extensions.Localization.dll"
-r:"C:\Users\user1\.nuget\packages\Microsoft.Extensions.Localization.Abstractions\1.0.0\lib\netstandard1.0\Microsoft.Extensions.Localization.Abstractions.dll"
-r:"C:\Users\user1\.nuget\packages\Microsoft.Extensions.Logging\1.0.0\lib\netstandard1.1\Microsoft.Extensions.Logging.dll"
-r:"C:\Users\user1\.nuget\packages\Microsoft.Extensions.Logging.Abstractions\1.1.2\lib\netstandard1.1\Microsoft.Extensions.Logging.Abstractions.dll"
-r:"C:\Users\user1\.nuget\packages\Microsoft.Extensions.Logging.AzureAppServices\1.0.2\lib\netstandard1.3\Microsoft.Extensions.Logging.AzureAppServices.dll"
-r:"C:\Users\user1\.nuget\packages\Microsoft.Extensions.Logging.Console\1.0.0\lib\netstandard1.3\Microsoft.Extensions.Logging.Console.dll"
-r:"C:\Users\user1\.nuget\packages\Microsoft.Extensions.Logging.Debug\1.0.0\lib\netstandard1.3\Microsoft.Extensions.Logging.Debug.dll"
-r:"C:\Users\user1\.nuget\packages\Microsoft.Extensions.ObjectPool\1.0.0\lib\netstandard1.3\Microsoft.Extensions.ObjectPool.dll"
-r:"C:\Users\user1\.nuget\packages\Microsoft.Extensions.Options\1.1.1\lib\netstandard1.0\Microsoft.Extensions.Options.dll"
-r:"C:\Users\user1\.nuget\packages\Microsoft.Extensions.Options.ConfigurationExtensions\1.0.0\lib\netstandard1.1\Microsoft.Extensions.Options.ConfigurationExtensions.dll"
-r:"C:\Users\user1\.nuget\packages\Microsoft.Extensions.PlatformAbstractions\1.0.0\lib\netstandard1.3\Microsoft.Extensions.PlatformAbstractions.dll"
-r:"C:\Users\user1\.nuget\packages\Microsoft.Extensions.Primitives\1.1.1\lib\netstandard1.0\Microsoft.Extensions.Primitives.dll"
-r:"C:\Users\user1\.nuget\packages\Microsoft.Extensions.WebEncoders\1.0.0\lib\netstandard1.0\Microsoft.Extensions.WebEncoders.dll"
-r:"C:\Users\user1\.nuget\packages\Microsoft.Net.Http.Headers\1.0.0\lib\netstandard1.1\Microsoft.Net.Http.Headers.dll"
-r:"C:\Users\user1\.nuget\packages\Microsoft.VisualBasic\10.0.1\ref\netstandard1.1\Microsoft.VisualBasic.dll"
-r:"C:\Users\user1\.nuget\packages\Microsoft.VisualStudio.Web.BrowserLink.Loader\14.0.0\lib\netstandard1.5\Microsoft.VisualStudio.Web.BrowserLink.Loader.dll"
-r:"C:\Users\user1\.nuget\packages\Microsoft.VisualStudio.Web.CodeGeneration\1.0.0-preview2-final\lib\netstandard1.6\Microsoft.VisualStudio.Web.CodeGeneration.dll"
-r:"C:\Users\user1\.nuget\packages\Microsoft.VisualStudio.Web.CodeGeneration.Core\1.0.0-preview2-final\lib\netstandard1.6\Microsoft.VisualStudio.Web.CodeGeneration.Core.dll"
-r:"C:\Users\user1\.nuget\packages\Microsoft.VisualStudio.Web.CodeGeneration.EntityFrameworkCore\1.0.0-preview2-final\lib\netstandard1.6\Microsoft.VisualStudio.Web.CodeGeneration.EntityFrameworkCore.dll"
-r:"C:\Users\user1\.nuget\packages\Microsoft.VisualStudio.Web.CodeGeneration.Templating\1.0.0-preview2-final\lib\netstandard1.6\Microsoft.VisualStudio.Web.CodeGeneration.Templating.dll"
-r:"C:\Users\user1\.nuget\packages\Microsoft.VisualStudio.Web.CodeGeneration.Tools\1.0.0-preview2-final\lib\netcoreapp1.0\dotnet-aspnet-codegenerator.dll"
-r:"C:\Users\user1\.nuget\packages\Microsoft.VisualStudio.Web.CodeGeneration.Utils\1.0.0-preview2-final\lib\netstandard1.6\Microsoft.VisualStudio.Web.CodeGeneration.Utils.dll"
-r:"C:\Users\user1\.nuget\packages\Microsoft.VisualStudio.Web.CodeGenerators.Mvc\1.0.0-preview2-final\lib\netstandard1.6\Microsoft.VisualStudio.Web.CodeGenerators.Mvc.dll"
-r:"C:\Users\user1\.nuget\packages\Microsoft.Win32.Primitives\4.3.0\ref\netstandard1.3\Microsoft.Win32.Primitives.dll"
-r:"C:\Users\user1\.nuget\packages\Microsoft.Win32.Registry\4.3.0\ref\netstandard1.3\Microsoft.Win32.Registry.dll"
-r:"C:\Users\user1\.nuget\packages\MimeKit\1.16.2\lib\netstandard1.3\MimeKit.dll"
-r:"C:\Users\user1\.nuget\packages\Newtonsoft.Json\9.0.1\lib\netstandard1.0\Newtonsoft.Json.dll"
-r:"C:\Users\user1\.nuget\packages\NLog\5.0.0-beta09\lib\netstandard1.5\NLog.dll"
-r:"C:\Users\user1\.nuget\packages\NLog.Extensions.Logging\1.0.0-rtm-beta1\lib\netstandard1.3\NLog.Extensions.Logging.dll"
-r:"C:\Users\user1\.nuget\packages\NLog.MailKit\1.1.1\lib\netstandard1.4\NLog.MailKit.dll"
-r:"C:\Users\user1\.nuget\packages\NLog.Web.AspNetCore\4.3.0\lib\netstandard1.3\NLog.Web.AspNetCore.dll"
-r:"C:\Users\user1\.nuget\packages\NuGet.Common\3.5.0-beta2-1484\lib\netstandard1.3\NuGet.Common.dll"
-r:"C:\Users\user1\.nuget\packages\NuGet.Configuration\3.5.0-beta2-1484\lib\netstandard1.3\NuGet.Configuration.dll"
-r:"C:\Users\user1\.nuget\packages\NuGet.DependencyResolver.Core\3.5.0-beta2-1484\lib\netstandard1.3\NuGet.DependencyResolver.Core.dll"
-r:"C:\Users\user1\.nuget\packages\NuGet.Frameworks\3.5.0-beta2-1484\lib\netstandard1.3\NuGet.Frameworks.dll"
-r:"C:\Users\user1\.nuget\packages\NuGet.LibraryModel\3.5.0-beta2-1484\lib\netstandard1.3\NuGet.LibraryModel.dll"
-r:"C:\Users\user1\.nuget\packages\NuGet.Packaging\3.5.0-beta2-1484\lib\netstandard1.3\NuGet.Packaging.dll"
-r:"C:\Users\user1\.nuget\packages\NuGet.Packaging.Core\3.5.0-beta2-1484\lib\netstandard1.3\NuGet.Packaging.Core.dll"
-r:"C:\Users\user1\.nuget\packages\NuGet.Packaging.Core.Types\3.5.0-beta2-1484\lib\netstandard1.3\NuGet.Packaging.Core.Types.dll"
-r:"C:\Users\user1\.nuget\packages\NuGet.ProjectModel\3.5.0-beta2-1484\lib\netstandard1.3\NuGet.ProjectModel.dll"
-r:"C:\Users\user1\.nuget\packages\NuGet.Protocol.Core.Types\3.5.0-beta2-1484\lib\netstandard1.3\NuGet.Protocol.Core.Types.dll"
-r:"C:\Users\user1\.nuget\packages\NuGet.Protocol.Core.v3\3.5.0-beta2-1484\lib\netstandard1.3\NuGet.Protocol.Core.v3.dll"
-r:"C:\Users\user1\.nuget\packages\NuGet.Repositories\3.5.0-beta2-1484\lib\netstandard1.3\NuGet.Repositories.dll"
-r:"C:\Users\user1\.nuget\packages\NuGet.RuntimeModel\3.5.0-beta2-1484\lib\netstandard1.3\NuGet.RuntimeModel.dll"
-r:"C:\Users\user1\.nuget\packages\NuGet.Versioning\3.5.0-beta2-1484\lib\netstandard1.0\NuGet.Versioning.dll"
-r:"C:\Users\user1\.nuget\packages\Portable.BouncyCastle\1.8.1.2\lib\netstandard1.3\BouncyCastle.Crypto.dll"
-r:"C:\Users\user1\.nuget\packages\Remotion.Linq\2.1.1\lib\netstandard1.0\Remotion.Linq.dll"
-r:"C:\Users\user1\.nuget\packages\Sendgrid\9.7.0\lib\netstandard1.3\SendGrid.dll"
-r:"C:\Users\user1\.nuget\packages\Serilog\2.3.0\lib\netstandard1.3\Serilog.dll"
-r:"C:\Users\user1\.nuget\packages\Serilog.Extensions.Logging\1.0.0\lib\netstandard1.3\Serilog.Extensions.Logging.dll"
-r:"C:\Users\user1\.nuget\packages\Serilog.Sinks.File\3.1.0\lib\netstandard1.3\Serilog.Sinks.File.dll"
-r:"C:\Users\user1\.nuget\packages\Serilog.Sinks.PeriodicBatching\2.0.0\lib\netstandard1.3\Serilog.Sinks.PeriodicBatching.dll"
-r:"C:\Users\user1\.nuget\packages\Serilog.Sinks.RollingFile\3.1.0\lib\netstandard1.3\Serilog.Sinks.RollingFile.dll"
-r:"C:\Users\user1\.nuget\packages\System.AppContext\4.3.0\ref\netstandard1.6\System.AppContext.dll"
-r:"C:\Users\user1\.nuget\packages\System.Buffers\4.3.0\lib\netstandard1.1\System.Buffers.dll"
-r:"C:\Users\user1\.nuget\packages\System.Collections\4.3.0\ref\netstandard1.3\System.Collections.dll"
-r:"C:\Users\user1\.nuget\packages\System.Collections.Concurrent\4.3.0\ref\netstandard1.3\System.Collections.Concurrent.dll"
-r:"C:\Users\user1\.nuget\packages\System.Collections.Immutable\1.2.0\lib\netstandard1.0\System.Collections.Immutable.dll"
-r:"C:\Users\user1\.nuget\packages\System.Collections.NonGeneric\4.0.1\ref\netstandard1.3\System.Collections.NonGeneric.dll"
-r:"C:\Users\user1\.nuget\packages\System.ComponentModel\4.3.0\ref\netstandard1.0\System.ComponentModel.dll"
-r:"C:\Users\user1\.nuget\packages\System.ComponentModel.Annotations\4.1.0\ref\netstandard1.4\System.ComponentModel.Annotations.dll"
-r:"C:\Users\user1\.nuget\packages\System.ComponentModel.Primitives\4.1.0\ref\netstandard1.0\System.ComponentModel.Primitives.dll"
-r:"C:\Users\user1\.nuget\packages\System.ComponentModel.TypeConverter\4.1.0\ref\netstandard1.5\System.ComponentModel.TypeConverter.dll"
-r:"C:\Users\user1\.nuget\packages\System.Console\4.3.0\ref\netstandard1.3\System.Console.dll"
-r:"C:\Users\user1\.nuget\packages\System.Data.Common\4.3.0\ref\netstandard1.2\System.Data.Common.dll"
-r:"C:\Users\user1\.nuget\packages\System.Data.SqlClient\4.1.0\ref\netstandard1.3\System.Data.SqlClient.dll"
-r:"C:\Users\user1\.nuget\packages\System.Diagnostics.Contracts\4.0.1\ref\netstandard1.0\System.Diagnostics.Contracts.dll"
-r:"C:\Users\user1\.nuget\packages\System.Diagnostics.Debug\4.3.0\ref\netstandard1.3\System.Diagnostics.Debug.dll"
-r:"C:\Users\user1\.nuget\packages\System.Diagnostics.DiagnosticSource\4.3.0\lib\netstandard1.3\System.Diagnostics.DiagnosticSource.dll"
-r:"C:\Users\user1\.nuget\packages\System.Diagnostics.Process\4.1.0\ref\netstandard1.4\System.Diagnostics.Process.dll"
-r:"C:\Users\user1\.nuget\packages\System.Diagnostics.StackTrace\4.0.1\ref\netstandard1.3\System.Diagnostics.StackTrace.dll"
-r:"C:\Users\user1\.nuget\packages\System.Diagnostics.Tools\4.3.0\ref\netstandard1.0\System.Diagnostics.Tools.dll"
-r:"C:\Users\user1\.nuget\packages\System.Diagnostics.TraceSource\4.0.0\ref\netstandard1.3\System.Diagnostics.TraceSource.dll"
-r:"C:\Users\user1\.nuget\packages\System.Diagnostics.Tracing\4.3.0\ref\netstandard1.5\System.Diagnostics.Tracing.dll"
-r:"C:\Users\user1\.nuget\packages\System.Dynamic.Runtime\4.0.11\ref\netstandard1.3\System.Dynamic.Runtime.dll"
-r:"C:\Users\user1\.nuget\packages\System.Globalization\4.3.0\ref\netstandard1.3\System.Globalization.dll"
-r:"C:\Users\user1\.nuget\packages\System.Globalization.Calendars\4.3.0\ref\netstandard1.3\System.Globalization.Calendars.dll"
-r:"C:\Users\user1\.nuget\packages\System.Globalization.Extensions\4.3.0\ref\netstandard1.3\System.Globalization.Extensions.dll"
-r:"C:\Users\user1\.nuget\packages\System.Interactive.Async\3.0.0\lib\netstandard1.0\System.Interactive.Async.dll"
-r:"C:\Users\user1\.nuget\packages\System.IO\4.3.0\ref\netstandard1.5\System.IO.dll"
-r:"C:\Users\user1\.nuget\packages\System.IO.Compression\4.3.0\ref\netstandard1.3\System.IO.Compression.dll"
-r:"C:\Users\user1\.nuget\packages\System.IO.Compression.ZipFile\4.3.0\ref\netstandard1.3\System.IO.Compression.ZipFile.dll"
-r:"C:\Users\user1\.nuget\packages\System.IO.FileSystem\4.3.0\ref\netstandard1.3\System.IO.FileSystem.dll"
-r:"C:\Users\user1\.nuget\packages\System.IO.FileSystem.AccessControl\4.0.0\ref\netstandard1.3\System.IO.FileSystem.AccessControl.dll"
-r:"C:\Users\user1\.nuget\packages\System.IO.FileSystem.Primitives\4.3.0\ref\netstandard1.3\System.IO.FileSystem.Primitives.dll"
-r:"C:\Users\user1\.nuget\packages\System.IO.FileSystem.Watcher\4.0.0\ref\netstandard1.3\System.IO.FileSystem.Watcher.dll"
-r:"C:\Users\user1\.nuget\packages\System.IO.MemoryMappedFiles\4.0.0\ref\netstandard1.3\System.IO.MemoryMappedFiles.dll"
-r:"C:\Users\user1\.nuget\packages\System.IO.UnmanagedMemoryStream\4.0.1\ref\netstandard1.3\System.IO.UnmanagedMemoryStream.dll"
-r:"C:\Users\user1\.nuget\packages\System.Linq\4.3.0\ref\netstandard1.6\System.Linq.dll"
-r:"C:\Users\user1\.nuget\packages\System.Linq.Expressions\4.3.0\ref\netstandard1.6\System.Linq.Expressions.dll"
-r:"C:\Users\user1\.nuget\packages\System.Linq.Parallel\4.0.1\ref\netstandard1.1\System.Linq.Parallel.dll"
-r:"C:\Users\user1\.nuget\packages\System.Linq.Queryable\4.0.1\ref\netstandard1.0\System.Linq.Queryable.dll"
-r:"C:\Users\user1\.nuget\packages\System.Net.Http\4.3.0\ref\netstandard1.3\System.Net.Http.dll"
-r:"C:\Users\user1\.nuget\packages\System.Net.NameResolution\4.3.0\ref\netstandard1.3\System.Net.NameResolution.dll"
-r:"C:\Users\user1\.nuget\packages\System.Net.NetworkInformation\4.3.0\ref\netstandard1.3\System.Net.NetworkInformation.dll"
-r:"C:\Users\user1\.nuget\packages\System.Net.Primitives\4.3.0\ref\netstandard1.3\System.Net.Primitives.dll"
-r:"C:\Users\user1\.nuget\packages\System.Net.Requests\4.0.11\ref\netstandard1.3\System.Net.Requests.dll"
-r:"C:\Users\user1\.nuget\packages\System.Net.Security\4.3.0\ref\netstandard1.3\System.Net.Security.dll"
-r:"C:\Users\user1\.nuget\packages\System.Net.Sockets\4.3.0\ref\netstandard1.3\System.Net.Sockets.dll"
-r:"C:\Users\user1\.nuget\packages\System.Net.WebHeaderCollection\4.0.1\ref\netstandard1.3\System.Net.WebHeaderCollection.dll"
-r:"C:\Users\user1\.nuget\packages\System.Net.WebSockets\4.3.0\ref\netstandard1.3\System.Net.WebSockets.dll"
-r:"C:\Users\user1\.nuget\packages\System.Numerics.Vectors\4.1.1\ref\netstandard1.0\System.Numerics.Vectors.dll"
-r:"C:\Users\user1\.nuget\packages\System.ObjectModel\4.3.0\ref\netstandard1.3\System.ObjectModel.dll"
-r:"C:\Users\user1\.nuget\packages\System.Reflection\4.3.0\ref\netstandard1.5\System.Reflection.dll"
-r:"C:\Users\user1\.nuget\packages\System.Reflection.DispatchProxy\4.0.1\ref\netstandard1.3\System.Reflection.DispatchProxy.dll"
-r:"C:\Users\user1\.nuget\packages\System.Reflection.Emit\4.3.0\ref\netstandard1.1\System.Reflection.Emit.dll"
-r:"C:\Users\user1\.nuget\packages\System.Reflection.Emit.ILGeneration\4.3.0\ref\netstandard1.0\System.Reflection.Emit.ILGeneration.dll"
-r:"C:\Users\user1\.nuget\packages\System.Reflection.Emit.Lightweight\4.3.0\ref\netstandard1.0\System.Reflection.Emit.Lightweight.dll"
-r:"C:\Users\user1\.nuget\packages\System.Reflection.Extensions\4.3.0\ref\netstandard1.0\System.Reflection.Extensions.dll"
-r:"C:\Users\user1\.nuget\packages\System.Reflection.Metadata\1.3.0\lib\netstandard1.1\System.Reflection.Metadata.dll"
-r:"C:\Users\user1\.nuget\packages\System.Reflection.Primitives\4.3.0\ref\netstandard1.0\System.Reflection.Primitives.dll"
-r:"C:\Users\user1\.nuget\packages\System.Reflection.TypeExtensions\4.3.0\ref\netstandard1.5\System.Reflection.TypeExtensions.dll"
-r:"C:\Users\user1\.nuget\packages\System.Resources.Reader\4.0.0\lib\netstandard1.0\System.Resources.Reader.dll"
-r:"C:\Users\user1\.nuget\packages\System.Resources.ResourceManager\4.3.0\ref\netstandard1.0\System.Resources.ResourceManager.dll"
-r:"C:\Users\user1\.nuget\packages\System.Runtime\4.3.0\ref\netstandard1.5\System.Runtime.dll"
-r:"C:\Users\user1\.nuget\packages\System.Runtime.CompilerServices.Unsafe\4.3.0\lib\netstandard1.0\System.Runtime.CompilerServices.Unsafe.dll"
-r:"C:\Users\user1\.nuget\packages\System.Runtime.Extensions\4.3.0\ref\netstandard1.5\System.Runtime.Extensions.dll"
-r:"C:\Users\user1\.nuget\packages\System.Runtime.Handles\4.3.0\ref\netstandard1.3\System.Runtime.Handles.dll"
-r:"C:\Users\user1\.nuget\packages\System.Runtime.InteropServices\4.3.0\ref\netstandard1.5\System.Runtime.InteropServices.dll"
-r:"C:\Users\user1\.nuget\packages\System.Runtime.InteropServices.RuntimeInformation\4.3.0\ref\netstandard1.1\System.Runtime.InteropServices.RuntimeInformation.dll"
-r:"C:\Users\user1\.nuget\packages\System.Runtime.Loader\4.0.0\ref\netstandard1.5\System.Runtime.Loader.dll"
-r:"C:\Users\user1\.nuget\packages\System.Runtime.Numerics\4.3.0\ref\netstandard1.1\System.Runtime.Numerics.dll"
-r:"C:\Users\user1\.nuget\packages\System.Runtime.Serialization.Primitives\4.3.0\ref\netstandard1.3\System.Runtime.Serialization.Primitives.dll"
-r:"C:\Users\user1\.nuget\packages\System.Security.AccessControl\4.0.0\ref\netstandard1.3\System.Security.AccessControl.dll"
-r:"C:\Users\user1\.nuget\packages\System.Security.Claims\4.3.0\ref\netstandard1.3\System.Security.Claims.dll"
-r:"C:\Users\user1\.nuget\packages\System.Security.Cryptography.Algorithms\4.3.0\ref\netstandard1.6\System.Security.Cryptography.Algorithms.dll"
-r:"C:\Users\user1\.nuget\packages\System.Security.Cryptography.Cng\4.3.0\ref\netstandard1.6\System.Security.Cryptography.Cng.dll"
-r:"C:\Users\user1\.nuget\packages\System.Security.Cryptography.Encoding\4.3.0\ref\netstandard1.3\System.Security.Cryptography.Encoding.dll"
-r:"C:\Users\user1\.nuget\packages\System.Security.Cryptography.Primitives\4.3.0\ref\netstandard1.3\System.Security.Cryptography.Primitives.dll"
-r:"C:\Users\user1\.nuget\packages\System.Security.Cryptography.X509Certificates\4.3.0\ref\netstandard1.4\System.Security.Cryptography.X509Certificates.dll"
-r:"C:\Users\user1\.nuget\packages\System.Security.Principal\4.3.0\ref\netstandard1.0\System.Security.Principal.dll"
-r:"C:\Users\user1\.nuget\packages\System.Security.Principal.Windows\4.3.0\ref\netstandard1.3\System.Security.Principal.Windows.dll"
-r:"C:\Users\user1\.nuget\packages\System.Spatial\5.6.4\lib\portable-net45+wp8+win8+wpa\System.Spatial.dll"
-r:"C:\Users\user1\.nuget\packages\System.Text.Encoding\4.3.0\ref\netstandard1.3\System.Text.Encoding.dll"
-r:"C:\Users\user1\.nuget\packages\System.Text.Encoding.CodePages\4.3.0\ref\netstandard1.3\System.Text.Encoding.CodePages.dll"
-r:"C:\Users\user1\.nuget\packages\System.Text.Encoding.Extensions\4.3.0\ref\netstandard1.3\System.Text.Encoding.Extensions.dll"
-r:"C:\Users\user1\.nuget\packages\System.Text.Encodings.Web\4.3.1\lib\netstandard1.0\System.Text.Encodings.Web.dll"
-r:"C:\Users\user1\.nuget\packages\System.Text.RegularExpressions\4.3.0\ref\netstandard1.6\System.Text.RegularExpressions.dll"
-r:"C:\Users\user1\.nuget\packages\System.Threading\4.3.0\ref\netstandard1.3\System.Threading.dll"
-r:"C:\Users\user1\.nuget\packages\System.Threading.AccessControl\4.0.0\ref\netstandard1.3\System.Threading.AccessControl.dll"
-r:"C:\Users\user1\.nuget\packages\System.Threading.Tasks\4.3.0\ref\netstandard1.3\System.Threading.Tasks.dll"
-r:"C:\Users\user1\.nuget\packages\System.Threading.Tasks.Dataflow\4.6.0\lib\netstandard1.1\System.Threading.Tasks.Dataflow.dll"
-r:"C:\Users\user1\.nuget\packages\System.Threading.Tasks.Extensions\4.3.0\lib\netstandard1.0\System.Threading.Tasks.Extensions.dll"
-r:"C:\Users\user1\.nuget\packages\System.Threading.Tasks.Parallel\4.0.1\ref\netstandard1.1\System.Threading.Tasks.Parallel.dll"
-r:"C:\Users\user1\.nuget\packages\System.Threading.Thread\4.3.0\ref\netstandard1.3\System.Threading.Thread.dll"
-r:"C:\Users\user1\.nuget\packages\System.Threading.ThreadPool\4.3.0\ref\netstandard1.3\System.Threading.ThreadPool.dll"
-r:"C:\Users\user1\.nuget\packages\System.Threading.Timer\4.3.0\ref\netstandard1.2\System.Threading.Timer.dll"
-r:"C:\Users\user1\.nuget\packages\System.Xml.ReaderWriter\4.3.0\ref\netstandard1.3\System.Xml.ReaderWriter.dll"
-r:"C:\Users\user1\.nuget\packages\System.Xml.XDocument\4.3.0\ref\netstandard1.3\System.Xml.XDocument.dll"
-r:"C:\Users\user1\.nuget\packages\System.Xml.XmlDocument\4.0.1\ref\netstandard1.3\System.Xml.XmlDocument.dll"
-r:"C:\Users\user1\.nuget\packages\System.Xml.XmlSerializer\4.0.11\ref\netstandard1.3\System.Xml.XmlSerializer.dll"
-r:"C:\Users\user1\.nuget\packages\WindowsAzure.Storage\7.2.0\lib\netstandard1.3\Microsoft.WindowsAzure.Storage.dll"
-resource:"C:\Users\user1\Documents\Visual Studio 2015\Projects\skiShop\src\skiShop\bin\src\skiShop\obj\Debug\netcoreapp1.0\skiShopdotnet-compile.deps.json",skiShop.deps.json
"C:\Users\user1\Documents\Visual Studio 2015\Projects\skiShop\src\skiShop\PaginatedList.cs"
"C:\Users\user1\Documents\Visual Studio 2015\Projects\skiShop\src\skiShop\Program.cs"
"C:\Users\user1\Documents\Visual Studio 2015\Projects\skiShop\src\skiShop\Startup.cs"
"C:\Users\user1\Documents\Visual Studio 2015\Projects\skiShop\src\skiShop\Controllers\AccountController.cs"
"C:\Users\user1\Documents\Visual Studio 2015\Projects\skiShop\src\skiShop\Controllers\HomeController.cs"
"C:\Users\user1\Documents\Visual Studio 2015\Projects\skiShop\src\skiShop\Controllers\ManageController.cs"
"C:\Users\user1\Documents\Visual Studio 2015\Projects\skiShop\src\skiShop\Controllers\PublicController.cs"
"C:\Users\user1\Documents\Visual Studio 2015\Projects\skiShop\src\skiShop\Controllers\RentalsController.cs"
"C:\Users\user1\Documents\Visual Studio 2015\Projects\skiShop\src\skiShop\Data\SampleData.cs"
"C:\Users\user1\Documents\Visual Studio 2015\Projects\skiShop\src\skiShop\Migrations\20170405033815_twentyeight.cs"
"C:\Users\user1\Documents\Visual Studio 2015\Projects\skiShop\src\skiShop\Migrations\20170405033815_twentyeight.Designer.cs"
"C:\Users\user1\Documents\Visual Studio 2015\Projects\skiShop\src\skiShop\Migrations\20170406052648_twentynine.cs"
"C:\Users\user1\Documents\Visual Studio 2015\Projects\skiShop\src\skiShop\Migrations\20170406052648_twentynine.Designer.cs"
"C:\Users\user1\Documents\Visual Studio 2015\Projects\skiShop\src\skiShop\Migrations\20170407044050_thirty.cs"
"C:\Users\user1\Documents\Visual Studio 2015\Projects\skiShop\src\skiShop\Migrations\20170407044050_thirty.Designer.cs"
"C:\Users\user1\Documents\Visual Studio 2015\Projects\skiShop\src\skiShop\Migrations\20170409202605_thirtyone.cs"
"C:\Users\user1\Documents\Visual Studio 2015\Projects\skiShop\src\skiShop\Migrations\20170409202605_thirtyone.Designer.cs"
"C:\Users\user1\Documents\Visual Studio 2015\Projects\skiShop\src\skiShop\Migrations\20170413170722_ThirtyTwo.cs"
"C:\Users\user1\Documents\Visual Studio 2015\Projects\skiShop\src\skiShop\Migrations\20170413170722_ThirtyTwo.Designer.cs"
"C:\Users\user1\Documents\Visual Studio 2015\Projects\skiShop\src\skiShop\Migrations\20170418232309_forty.cs"
"C:\Users\user1\Documents\Visual Studio 2015\Projects\skiShop\src\skiShop\Migrations\20170418232309_forty.Designer.cs"
"C:\Users\user1\Documents\Visual Studio 2015\Projects\skiShop\src\skiShop\Migrations\20170418232651_fortyone.cs"
"C:\Users\user1\Documents\Visual Studio 2015\Projects\skiShop\src\skiShop\Migrations\20170418232651_fortyone.Designer.cs"
"C:\Users\user1\Documents\Visual Studio 2015\Projects\skiShop\src\skiShop\Migrations\20170420051702_fifty.cs"
"C:\Users\user1\Documents\Visual Studio 2015\Projects\skiShop\src\skiShop\Migrations\20170420051702_fifty.Designer.cs"
"C:\Users\user1\Documents\Visual Studio 2015\Projects\skiShop\src\skiShop\Migrations\20170423203153_fiftyone.cs"
"C:\Users\user1\Documents\Visual Studio 2015\Projects\skiShop\src\skiShop\Migrations\20170423203153_fiftyone.Designer.cs"
"C:\Users\user1\Documents\Visual Studio 2015\Projects\skiShop\src\skiShop\Migrations\20170429172732_fiftytwo.cs"
"C:\Users\user1\Documents\Visual Studio 2015\Projects\skiShop\src\skiShop\Migrations\20170429172732_fiftytwo.Designer.cs"
"C:\Users\user1\Documents\Visual Studio 2015\Projects\skiShop\src\skiShop\Migrations\20170429174925_fiftythree.cs"
"C:\Users\user1\Documents\Visual Studio 2015\Projects\skiShop\src\skiShop\Migrations\20170429174925_fiftythree.Designer.cs"
"C:\Users\user1\Documents\Visual Studio 2015\Projects\skiShop\src\skiShop\Migrations\20170612023134_fifty-four.cs"
"C:\Users\user1\Documents\Visual Studio 2015\Projects\skiShop\src\skiShop\Migrations\20170612023134_fifty-four.Designer.cs"
"C:\Users\user1\Documents\Visual Studio 2015\Projects\skiShop\src\skiShop\Migrations\20170625004257_fifty-six.cs"
"C:\Users\user1\Documents\Visual Studio 2015\Projects\skiShop\src\skiShop\Migrations\20170625004257_fifty-six.Designer.cs"
"C:\Users\user1\Documents\Visual Studio 2015\Projects\skiShop\src\skiShop\Migrations\20170709171927_fiftyseven.cs"
"C:\Users\user1\Documents\Visual Studio 2015\Projects\skiShop\src\skiShop\Migrations\20170709171927_fiftyseven.Designer.cs"
"C:\Users\user1\Documents\Visual Studio 2015\Projects\skiShop\src\skiShop\Migrations\20170813230230_fifty-eight.cs"
"C:\Users\user1\Documents\Visual Studio 2015\Projects\skiShop\src\skiShop\Migrations\20170813230230_fifty-eight.Designer.cs"
"C:\Users\user1\Documents\Visual Studio 2015\Projects\skiShop\src\skiShop\Migrations\20170815061435_sixty.cs"
"C:\Users\user1\Documents\Visual Studio 2015\Projects\skiShop\src\skiShop\Migrations\20170815061435_sixty.Designer.cs"
"C:\Users\user1\Documents\Visual Studio 2015\Projects\skiShop\src\skiShop\Migrations\20170817032949_sixtytwo.cs"
"C:\Users\user1\Documents\Visual Studio 2015\Projects\skiShop\src\skiShop\Migrations\20170817032949_sixtytwo.Designer.cs"
"C:\Users\user1\Documents\Visual Studio 2015\Projects\skiShop\src\skiShop\Migrations\20170818022240_sixtythree.cs"
"C:\Users\user1\Documents\Visual Studio 2015\Projects\skiShop\src\skiShop\Migrations\20170818022240_sixtythree.Designer.cs"
"C:\Users\user1\Documents\Visual Studio 2015\Projects\skiShop\src\skiShop\Migrations\skiShopContextModelSnapshot.cs"
"C:\Users\user1\Documents\Visual Studio 2015\Projects\skiShop\src\skiShop\Models\AdminOption.cs"
"C:\Users\user1\Documents\Visual Studio 2015\Projects\skiShop\src\skiShop\Models\ApplicationUser.cs"
"C:\Users\user1\Documents\Visual Studio 2015\Projects\skiShop\src\skiShop\Models\Info.cs"
"C:\Users\user1\Documents\Visual Studio 2015\Projects\skiShop\src\skiShop\Models\Record.cs"
"C:\Users\user1\Documents\Visual Studio 2015\Projects\skiShop\src\skiShop\Models\Rental.cs"
"C:\Users\user1\Documents\Visual Studio 2015\Projects\skiShop\src\skiShop\Models\RentalReportViewModel.cs"
"C:\Users\user1\Documents\Visual Studio 2015\Projects\skiShop\src\skiShop\Models\RentalViewModel.cs"
"C:\Users\user1\Documents\Visual Studio 2015\Projects\skiShop\src\skiShop\Models\RentalViewModel2.cs"
"C:\Users\user1\Documents\Visual Studio 2015\Projects\skiShop\src\skiShop\Models\RentalViewModel3.cs"
"C:\Users\user1\Documents\Visual Studio 2015\Projects\skiShop\src\skiShop\Models\RentalViewModel4.cs"
"C:\Users\user1\Documents\Visual Studio 2015\Projects\skiShop\src\skiShop\Models\ReportViewModel.cs"
"C:\Users\user1\Documents\Visual Studio 2015\Projects\skiShop\src\skiShop\Models\ShopPassword.cs"
"C:\Users\user1\Documents\Visual Studio 2015\Projects\skiShop\src\skiShop\Models\ShopPasswordViewModel.cs"
"C:\Users\user1\Documents\Visual Studio 2015\Projects\skiShop\src\skiShop\Models\skiShopContext.cs"
"C:\Users\user1\Documents\Visual Studio 2015\Projects\skiShop\src\skiShop\Models\AccountViewModels\ExternalLoginConfirmationViewModel.cs"
"C:\Users\user1\Documents\Visual Studio 2015\Projects\skiShop\src\skiShop\Models\AccountViewModels\ForgotPasswordViewModel.cs"
"C:\Users\user1\Documents\Visual Studio 2015\Projects\skiShop\src\skiShop\Models\AccountViewModels\LoginViewModel.cs"
"C:\Users\user1\Documents\Visual Studio 2015\Projects\skiShop\src\skiShop\Models\AccountViewModels\RegisterViewModel.cs"
"C:\Users\user1\Documents\Visual Studio 2015\Projects\skiShop\src\skiShop\Models\AccountViewModels\ResetPasswordViewModel.cs"
"C:\Users\user1\Documents\Visual Studio 2015\Projects\skiShop\src\skiShop\Models\AccountViewModels\SendCodeViewModel.cs"
"C:\Users\user1\Documents\Visual Studio 2015\Projects\skiShop\src\skiShop\Models\AccountViewModels\VerifyCodeViewModel.cs"
"C:\Users\user1\Documents\Visual Studio 2015\Projects\skiShop\src\skiShop\Models\ManageViewModels\AddPhoneNumberViewModel.cs"
"C:\Users\user1\Documents\Visual Studio 2015\Projects\skiShop\src\skiShop\Models\ManageViewModels\ChangePasswordViewModel.cs"
"C:\Users\user1\Documents\Visual Studio 2015\Projects\skiShop\src\skiShop\Models\ManageViewModels\ConfigureTwoFactorViewModel.cs"
"C:\Users\user1\Documents\Visual Studio 2015\Projects\skiShop\src\skiShop\Models\ManageViewModels\FactorViewModel.cs"
"C:\Users\user1\Documents\Visual Studio 2015\Projects\skiShop\src\skiShop\Models\ManageViewModels\IndexViewModel.cs"
"C:\Users\user1\Documents\Visual Studio 2015\Projects\skiShop\src\skiShop\Models\ManageViewModels\ManageLoginsViewModel.cs"
"C:\Users\user1\Documents\Visual Studio 2015\Projects\skiShop\src\skiShop\Models\ManageViewModels\RemoveLoginViewModel.cs"
"C:\Users\user1\Documents\Visual Studio 2015\Projects\skiShop\src\skiShop\Models\ManageViewModels\SetPasswordViewModel.cs"
"C:\Users\user1\Documents\Visual Studio 2015\Projects\skiShop\src\skiShop\Models\ManageViewModels\VerifyPhoneNumberViewModel.cs"
"C:\Users\user1\Documents\Visual Studio 2015\Projects\skiShop\src\skiShop\Services\AccountService.cs"
"C:\Users\user1\Documents\Visual Studio 2015\Projects\skiShop\src\skiShop\Services\IEmailSender.cs"
"C:\Users\user1\Documents\Visual Studio 2015\Projects\skiShop\src\skiShop\Services\ISmsSender.cs"
"C:\Users\user1\Documents\Visual Studio 2015\Projects\skiShop\src\skiShop\Services\MessageServices.cs"
"C:\Users\user1\Documents\Visual Studio 2015\Projects\skiShop\src\skiShop\Services\RentalService.cs"
